\BOOKMARK [2][]{Outline0.1}{What is a GIS?}{}% 1
\BOOKMARK [3][]{Outline0.1.1.3}{Definition}{Outline0.1}% 2
\BOOKMARK [3][]{Outline0.1.2.5}{Softwares}{Outline0.1}% 3
\BOOKMARK [3][]{Outline0.1.3.6}{Geographical data}{Outline0.1}% 4
\BOOKMARK [2][]{Outline0.2}{Applications}{}% 5
\BOOKMARK [3][]{Outline0.2.1.12}{View data \040create Maps}{Outline0.2}% 6
\BOOKMARK [3][]{Outline0.2.2.17}{Make spatial analyses}{Outline0.2}% 7
\BOOKMARK [2][]{Outline0.3}{Survival kit}{}% 8
\BOOKMARK [3][]{Outline0.3.1.25}{Geodesy}{Outline0.3}% 9
\BOOKMARK [3][]{Outline0.3.2.27}{Projections}{Outline0.3}% 10
\BOOKMARK [3][]{Outline0.3.3.33}{Creating feature}{Outline0.3}% 11
\BOOKMARK [3][]{Outline0.3.4.35}{Data management}{Outline0.3}% 12
\BOOKMARK [2][]{Outline0.4}{Practice}{}% 13
