\relax 
\providecommand\hyper@newdestlabel[2]{}
\providecommand\HyperFirstAtBeginDocument{\AtBeginDocument}
\HyperFirstAtBeginDocument{\ifx\hyper@anchor\@undefined
\global\let\oldcontentsline\contentsline
\gdef\contentsline#1#2#3#4{\oldcontentsline{#1}{#2}{#3}}
\global\let\oldnewlabel\newlabel
\gdef\newlabel#1#2{\newlabelxx{#1}#2}
\gdef\newlabelxx#1#2#3#4#5#6{\oldnewlabel{#1}{{#2}{#3}}}
\AtEndDocument{\ifx\hyper@anchor\@undefined
\let\contentsline\oldcontentsline
\let\newlabel\oldnewlabel
\fi}
\fi}
\global\let\hyper@last\relax 
\gdef\HyperFirstAtBeginDocument#1{#1}
\providecommand\HyField@AuxAddToFields[1]{}
\providecommand\HyField@AuxAddToCoFields[2]{}
\providecommand\pbs@newkey[2]{}
\providecommand\pbs@seq@push@cx[2]{}
\providecommand\pbs@at@end@dvi@check{}
\pbs@at@end@dvi@check
\providecommand\@anim@newkey[2]{}
\@input{content_en.aux}
\pbs@newkey{pbs@last@page}{1}
\select@language{english}
\@writefile{toc}{\select@language{english}}
\@writefile{lof}{\select@language{english}}
\@writefile{lot}{\select@language{english}}
\pbs@newkey{pbs@last@page}{2}
\pbs@newkey{pbs@last@page}{3}
\pbs@newkey{pbs@last@page}{4}
\pbs@newkey{pbs@last@page}{5}
\pbs@newkey{pbs@last@page}{6}
\pbs@newkey{pbs@last@page}{7}
\pbs@newkey{pbs@last@page}{8}
\pbs@newkey{pbs@last@page}{9}
\pbs@newkey{pbs@last@page}{10}
\pbs@newkey{pbs@last@page}{11}
\pbs@newkey{pbs@last@page}{12}
\pbs@newkey{pbs@last@page}{13}
\pbs@newkey{pbs@last@page}{14}
\pbs@newkey{pbs@last@page}{15}
\pbs@newkey{pbs@last@page}{16}
\pbs@newkey{pbs@last@page}{17}
\pbs@newkey{pbs@last@page}{18}
\pbs@newkey{pbs@last@page}{19}
\pbs@newkey{pbs@last@page}{20}
\pbs@newkey{pbs@last@page}{21}
\pbs@newkey{pbs@last@page}{22}
\pbs@newkey{pbs@last@page}{23}
\pbs@newkey{pbs@last@page}{24}
\pbs@newkey{pbs@last@page}{25}
\pbs@newkey{pbs@last@page}{26}
\pbs@newkey{pbs@last@page}{27}
\pbs@newkey{pbs@last@page}{28}
\pbs@newkey{pbs@last@page}{29}
\pbs@newkey{pbs@last@page}{30}
\pbs@newkey{pbs@last@page}{31}
\pbs@newkey{pbs@last@page}{32}
\pbs@newkey{pbs@last@page}{33}
\pbs@newkey{pbs@last@page}{34}
\pbs@newkey{pbs@last@page}{35}
\pbs@newkey{pbs@last@page}{36}
\pbs@newkey{pbs@last@page}{37}
\pbs@newkey{pbs@last@page}{38}
\pbs@newkey{pbs@last@page}{39}
\pbs@newkey{pbs@last@page}{40}
\pbs@newkey{pbs@last@page}{41}
\pbs@newkey{pbs@last@page}{42}
\pbs@newkey{pbs@last@page}{43}
\pbs@newkey{pbs@last@page}{44}
\@writefile{nav}{\headcommand {\beamer@partpages {1}{44}}}
\@writefile{nav}{\headcommand {\beamer@subsectionpages {44}{44}}}
\@writefile{nav}{\headcommand {\beamer@sectionpages {44}{44}}}
\@writefile{nav}{\headcommand {\beamer@documentpages {44}}}
\@writefile{nav}{\headcommand {\def \inserttotalframenumber {40}}}
